

[
  {
    "model":"TrakiDinarek_login.Category",
    "pk":1,
    "fields":{
      "name":"No Poverty",
      "image":"No_Poverty.png",
      "desc":"Economic growth must be inclusive to provide sustainable jobs and promote equality."
  }
},
{
  "model":"TrakiDinarek_login.Category",
  "pk":2,
  "fields":{
    "name":"Zero Hunger",
    "image":"Zero_Hunger.png",
    "desc":"The food and agriculture sector offers key solutions for development,and is central for hunger and poverty eradication."
  }
},
{
  "model":"TrakiDinarek_login.Category",
  "pk":3,
  "fields":{
    "name":"Good Health and Well-being",
    "image":"Good_Health_and_Well_being.png",
    "desc":"Ensuring healthy lives and promoting the well-being for all at all ages is essential to sustainable development."
}
},
{
  "model":"TrakiDinarek_login.Category",
  "pk":4,
  "fields":{
    "name":"Quality Education",
    "image":"Quality_Education.png",
    "desc":"Obtaining a quality education is the foundation to improving people’s lives and sustainable development."
  }
},
{
  "model":"TrakiDinarek_login.Category",
  "pk":5,
  "fields":{
    "name":"Gender Equality",
    "image":"Gender_Equality.png",
    "desc":"Gender equality is not only a fundamental human right, but a necessary foundation for a peaceful, prosperous and sustainable world."
  }
},
{
  "model":"TrakiDinarek_login.Category",
  "pk":6,
  "fields":{
    "name":"Clean Water and Sanitation",
    "image":"Clean_Water_and_Sanitation.png",
    "desc":"Clean, accessible water for all is an essential part of the world we want to live in."
  }
},
{
  "model":"TrakiDinarek_login.Category",
  "pk":7,
  "fields":{
    "name":"Affordable and Clean Energy",
    "image":"Affordable_and_Clean_Energy.png",
    "desc":"Energy is central to nearly every major challenge and opportunity."
  }
},
{
  "model":"TrakiDinarek_login.Category",
  "pk":8,
  "fields":{
    "name":"Decent Work and Economic Growth",
    "image":"Decent_Work_and_Economic_Growth.png",
    "desc":"Sustainable economic growth will require societies to create the conditions that allow people to have quality jobs."
  }
},
{
  "model":"TrakiDinarek_login.Category",
  "pk":9,
  "fields":{
    "name":"Industry, Innovation and Infrastructure",
    "image":"Industry_Innovation_and_Infrastructure.png",
    "desc":"Investments in infrastructure are crucial to achieving sustainable development."
  }
},
{
  "model":"TrakiDinarek_login.Category",
  "pk":10,
  "fields":{
    "name":"Reduced Inequality",
    "image":"Reduced_Inequality.png",
    "desc":"To reduce inequalities, policies should be universal in principle, paying attention to the needs of disadvantaged and marginalized populations."
  }
},
{
  "model":"TrakiDinarek_login.Category",
  "pk":11,
  "fields":{
    "name":"Sustainable Cities and Communities",
    "image":"Sustainable_Cities_and_Communities.png",
    "desc":"There needs to be a future in which cities provide opportunities for all, with access to basic services, energy, housing, transportation and more."
  }
},
{
  "model":"TrakiDinarek_login.Category",
  "pk":12,
  "fields":{
    "name":"Responsible Consumption and Production",
    "image":"Responsible_Consumption_and_Production.png",
    "desc":"Responsible Production and Consumption"
  }
},
{
  "model":"TrakiDinarek_login.Category",
  "pk":13,
  "fields":{
    "name":"Climate Action",
    "image":"Climate_Action.png",
    "desc":"Climate change is a global challenge that affects everyone, everywhere."
  }
},
{
  "model":"TrakiDinarek_login.Category",
  "pk":14,
  "fields":{
    "name":"Life Below Water",
    "image":"Life_Below_Water.png",
    "desc":"Careful management of this essential global resource is a key feature of a sustainable future."
  }
},
{
  "model":"TrakiDinarek_login.Category",
  "pk":15,
  "fields":{
    "name":"Life on Land",
    "image":"Life_on_Land.png",
    "desc":"Sustainably manage forests, combat desertification, halt and reverse land degradation, halt biodiversity loss"
   }
},
{
  "model":"TrakiDinarek_login.Category",
  "pk":16,
  "fields":{
    "name":"Peace and Justice Strong Institutions",
    "image":"Peace_and_Justice_Strong_Institutions.png",
    "desc":"Access to justice for all, and building effective, accountable institutions at all levels."
  }
},
{
  "model":"TrakiDinarek_login.Category",
  "pk":17,
  "fields":{
    "name":"Partnerships to achieve the Goal",
    "image":"Partnerships_to_achieve_the_Goal.png",
    "desc":"Revitalize the global partnership for sustainable development"
  }
}]